<?xml version="1.0" encoding="UTF-8" standalone="no"?>
<svg
   width="512"
   height="512"
   viewBox="0 0 1387.3655 1354.6667"
   version="1.1"
   id="svg94"
   sodipodi:docname="logo.svg"
   inkscape:version="1.2.2 (b0a8486541, 2022-12-01)"
   xmlns:inkscape="http://www.inkscape.org/namespaces/inkscape"
   xmlns:sodipodi="http://sodipodi.sourceforge.net/DTD/sodipodi-0.dtd"
   xmlns="http://www.w3.org/2000/svg"
   xmlns:svg="http://www.w3.org/2000/svg">
  <defs
     id="defs98" />
  <sodipodi:namedview
     id="namedview96"
     pagecolor="#ffffff"
     bordercolor="#666666"
     borderopacity="1.0"
     inkscape:showpageshadow="2"
     inkscape:pageopacity="0.0"
     inkscape:pagecheckerboard="0"
     inkscape:deskcolor="#d1d1d1"
     inkscape:document-units="mm"
     showgrid="false"
     inkscape:zoom="0.52563007"
     inkscape:cx="329.12881"
     inkscape:cy="287.27428"
     inkscape:window-width="1128"
     inkscape:window-height="683"
     inkscape:window-x="0"
     inkscape:window-y="0"
     inkscape:window-maximized="1"
     inkscape:current-layer="svg94" />
  <g
     id="g427"
     transform="matrix(7.9443276,0,0,7.9443276,-559.29506,-171.31845)">
    <ellipse
       cx="170.31"
       cy="84.907997"
       rx="82.901001"
       ry="84.051003"
       transform="matrix(0.99112297,0.13294836,-0.13047469,0.99145478,0,0)"
       fill="#ffffff"
       stroke="#ffffff"
       stroke-width="6.5"
       stroke-linecap="round"
       stroke-linejoin="round"
       id="ellipse2" />
    <g
       stroke-linecap="round"
       stroke-linejoin="round"
       id="g10">
      <ellipse
         cx="141.897"
         cy="127.623"
         rx="82.902"
         ry="84.050003"
         transform="matrix(0.9902462,-0.13932865,0.13673619,0.99061096,0,0)"
         fill="#6565e5"
         stroke="#3303b1"
         stroke-width="1.28"
         id="ellipse4" />
      <path
         d="m 75.597,113.103 c 30.838,-10.764 106.16,-18.413 165.31,-0.081 -2.676,39.52 -33.804,76.73 -78.566,78.227 -42.09,-2.008 -79.858,-21.177 -86.744,-78.146 z"
         fill="#66b2b2"
         stroke="#1e82f0"
         stroke-width="0.265"
         id="path6" />
      <ellipse
         cx="170.62601"
         cy="84.960999"
         rx="82.901001"
         ry="84.051003"
         transform="matrix(0.99112297,0.13294836,-0.13047469,0.99145478,0,0)"
         fill="none"
         stroke="#6565e5"
         stroke-width="1.837"
         id="ellipse8" />
    </g>
    <ellipse
       cx="144.759"
       cy="63.789001"
       rx="1.309"
       ry="1.296"
       transform="matrix(0.98538,-0.17035,0.16502,0.98629,0,0)"
       fill="#ffffff"
       id="ellipse12" />
    <ellipse
       cx="139.395"
       cy="58.460999"
       rx="0.87099999"
       ry="0.88999999"
       transform="matrix(0.98644,-0.16412,0.17127,0.98522,0,0)"
       fill="#ffffff"
       id="ellipse14" />
    <ellipse
       cx="150.217"
       cy="57.139999"
       rx="1.309"
       ry="1.296"
       transform="matrix(0.98538,-0.17035,0.16502,0.98629,0,0)"
       fill="#ffffff"
       id="ellipse16" />
    <ellipse
       cx="158.38901"
       cy="62.188"
       rx="0.87099999"
       ry="0.88999999"
       transform="matrix(0.98644,-0.16412,0.17127,0.98522,0,0)"
       fill="#ffffff"
       id="ellipse18" />
    <ellipse
       cx="97.513"
       cy="69.216003"
       rx="1.309"
       ry="1.296"
       transform="matrix(0.98538,-0.17035,0.16502,0.98629,0,0)"
       fill="#ffffff"
       id="ellipse20" />
    <ellipse
       cx="92.585999"
       cy="71.582001"
       rx="0.87099999"
       ry="0.88999999"
       transform="matrix(0.98644,-0.16412,0.17127,0.98522,0,0)"
       fill="#ffffff"
       id="ellipse22" />
    <ellipse
       cx="99.069"
       cy="79.908997"
       rx="0.87099999"
       ry="0.88999999"
       transform="matrix(0.98644,-0.16412,0.17127,0.98522,0,0)"
       fill="#ffffff"
       id="ellipse24" />
    <ellipse
       cx="189.748"
       cy="122.616"
       rx="0.87099999"
       ry="0.88999999"
       transform="matrix(0.98644,-0.16412,0.17127,0.98522,0,0)"
       fill="#ffffff"
       id="ellipse26" />
    <ellipse
       cx="196.04401"
       cy="127.215"
       rx="0.87099999"
       ry="0.88999999"
       transform="matrix(0.98644,-0.16412,0.17127,0.98522,0,0)"
       fill="#ffffff"
       id="ellipse28" />
    <ellipse
       cx="208.89101"
       cy="125.403"
       rx="0.87099999"
       ry="0.88999999"
       transform="matrix(0.98644,-0.16412,0.17127,0.98522,0,0)"
       fill="#ffffff"
       id="ellipse30" />
    <ellipse
       cx="69.418999"
       cy="99.555"
       rx="0.87099999"
       ry="0.88999999"
       transform="matrix(0.98644,-0.16412,0.17127,0.98522,0,0)"
       fill="#ffffff"
       id="ellipse32" />
    <ellipse
       cx="80.060997"
       cy="104.947"
       rx="0.87099999"
       ry="0.88999999"
       transform="matrix(0.98644,-0.16412,0.17127,0.98522,0,0)"
       fill="#ffffff"
       id="ellipse34" />
    <ellipse
       cx="74.610001"
       cy="95.600998"
       rx="0.87099999"
       ry="0.88999999"
       transform="matrix(0.98644,-0.16412,0.17127,0.98522,0,0)"
       fill="#ffffff"
       id="ellipse36" />
    <g
       transform="matrix(1.23888,0,0,1.18024,-15.158,4.539)"
       id="g52">
      <path
         d="m 174.342,41.045 -4.737,-5.67"
         fill="none"
         stroke="#e0e0fa"
         stroke-width="0.265"
         id="path38" />
      <ellipse
         transform="matrix(0.98644,-0.16412,0.17127,0.98522,0,0)"
         ry="0.88999999"
         rx="0.87099999"
         cy="62.605"
         cx="160.992"
         fill="#ffffff"
         id="ellipse40" />
      <ellipse
         transform="matrix(0.98538,-0.17035,0.16502,0.98629,0,0)"
         ry="1.296"
         rx="1.309"
         cy="74.676003"
         cx="168.114"
         fill="#ffffff"
         id="ellipse42" />
      <path
         d="m 174.342,41.045 v 7.654"
         fill="none"
         stroke="#e0e0fa"
         stroke-width="0.265"
         id="path44" />
      <ellipse
         transform="matrix(0.98538,-0.17035,0.16502,0.98629,0,0)"
         ry="1.296"
         rx="1.309"
         cy="77.583"
         cx="163.647"
         fill="#ffffff"
         id="ellipse46" />
      <path
         d="m 174.342,41.045 3.685,4.346"
         fill="#ffffff"
         stroke="#ffffff"
         stroke-width="0.265"
         stroke-opacity="0.8"
         id="path48" />
      <ellipse
         transform="matrix(0.98538,-0.17035,0.16502,0.98629,0,0)"
         ry="1.296"
         rx="1.309"
         cy="70.112999"
         cx="164.994"
         fill="#ffffff"
         id="ellipse50" />
    </g>
    <ellipse
       cx="201.998"
       cy="120.893"
       rx="1.577"
       ry="1.563"
       transform="matrix(0.98534,-0.17058,0.1648,0.98633,0,0)"
       fill="#ffffff"
       id="ellipse54" />
    <g
       transform="matrix(0.92941,0,0,0.92015,-89.579,-18.076)"
       id="g60">
      <ellipse
         transform="matrix(0.98538,-0.17035,0.16502,0.98629,0,0)"
         ry="1.296"
         rx="1.309"
         cy="116.367"
         cx="201.923"
         fill="#ffffff"
         id="ellipse56" />
      <path
         d="m 217.512,79.963 0.656,-4.8 0.651,4.774 4.297,0.427 -4.235,0.486 -0.562,4.32 -0.827,-4.364 -4.317,-0.283 z"
         fill="#ffffff"
         id="path58" />
    </g>
    <g
       id="g64">
      <path
         d="m 92.073,118.482 34.345,47.686"
         fill="none"
         stroke="#ff0000"
         stroke-width="0.265"
         id="path62" />
    </g>
    <g
       id="g76">
      <path
         d="m 89.6,125.364 c 6.213,-24.181 23.562,-49.746 42.156,-65.054 l 12.514,15.215 c -13.686,29.247 -15.166,60.02 -17.852,90.643 -12.88,-21.164 -25.463,-33.499 -36.817,-40.804 z"
         fill="#1e1e1e"
         id="path66" />
      <path
         d="M 144.27,75.525 131.756,60.31 c 8.957,-6.001 17.904,-12.098 27.556,-11.848 15.735,4.624 18.357,11.122 24.864,17.065 -14.352,-1.917 -26.882,5.279 -39.906,9.998 z"
         fill="#1e1e1e"
         id="path68" />
      <path
         d="m 144.27,75.525 c -15.31,34.156 -15.519,61.952 -17.852,90.643 l 12.676,-3.302 c 29.147,-31.443 25.852,-53.87 34.237,-70.654 C 162.783,87.5 152.681,80.237 144.27,75.525 m 39.906,-9.998 c -1.005,11.735 -5.661,20.523 -10.845,26.685 32.95,18.315 27.544,35.314 35.093,53.603 l 10.737,-2.365 C 213.853,116.457 206.206,89.585 184.176,65.527 Z"
         fill="#ffffff"
         id="path70" />
      <path
         d="m 144.27,75.525 c 14.943,-7.6 28.522,-11.652 39.906,-9.998 -0.51,8.697 -3.219,19.411 -10.845,26.685 -10.273,-3.127 -20.924,-9.646 -29.061,-16.687 z"
         fill="#fde839"
         id="path72" />
      <path
         d="m 173.33,92.212 c -20.064,18.505 -29.112,41.3 -34.236,70.654 l 69.33,-17.05 c -6.17,-20.518 -6.82,-37.091 -32.164,-52.092"
         fill="#4d4d4d"
         id="path74" />
    </g>
    <g
       id="g80">
      <path
         d="m 160.232,107.814 46.993,28.78 1.199,9.221 -69.33,17.051 c 4.09,-20.263 8.643,-40.227 21.138,-55.052 z"
         fill="#717171"
         id="path78" />
    </g>
    <g
       fill="none"
       id="g92">
      <path
         d="m 173.33,92.212 c 10.942,-10.653 10.332,-24.602 10.846,-26.685 -17.211,0.06 -26.87,3.911 -39.906,9.998 5.128,4.664 22.03,15.102 29.06,16.687 z m -46.912,73.956 c 0.393,-65.94 28.16,-118.156 32.894,-117.706 m 59.849,94.988 C 216.073,111.805 188.713,55.69 159.312,48.462"
         stroke="#6565e5"
         stroke-width="1.834"
         stroke-linecap="round"
         stroke-linejoin="round"
         id="path82" />
      <path
         d="m 159.312,48.462 c -39.444,1.973 -69.933,67.678 -69.711,76.902 18.455,10.452 28.855,28.32 36.817,40.804 m 0,0 92.743,-22.718"
         stroke="#6565e5"
         stroke-width="1.834"
         stroke-linecap="round"
         stroke-linejoin="round"
         id="path84" />
      <path
         d="M 144.27,75.525 131.756,60.31"
         stroke="#7070e4"
         stroke-width="1.834"
         id="path86" />
      <path
         d="M 206.47,136.027 160.232,107.814"
         stroke="#afafaf"
         stroke-width="1.465"
         stroke-linejoin="round"
         paint-order="fill markers stroke"
         id="path88" />
      <path
         d="m 139.094,162.866 c 7.557,-42.468 20.083,-55.785 34.237,-70.654 23.418,11.692 27.95,26.174 32.08,40.891 1.351,4.812 2.505,9.764 3.013,12.712"
         stroke="#6565e5"
         stroke-width="1.834"
         stroke-linecap="round"
         stroke-linejoin="round"
         id="path90" />
    </g>
  </g>
</svg>
